%YAML 1.1
%TAG !u! tag:unity3d.com,2011:
--- !u!78 &1
TagManager:
  serializedVersion: 2
  tags:
  - ground
  - OB
  - coins
  - arma
  - portal
  - fin
  - llave
  - Enemigo
  - Camara1
  - Camara2
  - corazon
  - JefeFinal
  layers:
  - Default
  - TransparentFX
  - Ignore Raycast
  - 
  - Water
  - UI
  - 
  - piso
  - Player
  - Enemigo2
  - Enemigo1
  - Plataformas
  - JefeFinal
  - BackGround
  - 
  - 
  - 
  - 
  - 
  - 
  - 
  - 
  - 
  - 
  - 
  - 
  - 
  - 
  - 
  - 
  - 
  - 
  m_SortingLayers:
  - name: background
    uniqueID: 1236255599
    locked: 0
  - name: Default
    uniqueID: 0
    locked: 0
  - name: 'Sprites '
    uniqueID: 299246299
    locked: 0
  - name: canvas
    uniqueID: 506889037
    locked: 0
  - name: Enemigos
    uniqueID: 2512404537
    locked: 0
